@startuml
interface Pila {
  +push(element : Object)
  +pop() : Object
  +poll() : Object
  +isEmpty() : boolean
}
Exception <|-- PilaBuidaException
Pila .> PilaBuidaException : throws
Pila <|.. PilaArrayList
Pila <|.. PilaLinkedList
PilaArrayList --> ArrayList
PilaLinkedList --> LinkedList
@enduml
