@startuml
participant Biblioteca
participant "exemplar:Exemplar" as Exemplar

[o->Biblioteca: creaPrestec(nSoci, idExemplar)
activate Biblioteca
Biblioteca->Biblioteca: getSoci(nSoci)
activate Biblioteca
Biblioteca<--Biblioteca: soci
deactivate Biblioteca
Biblioteca->Cataleg: getExemplar(idExemplar)
activate Cataleg
Biblioteca<--Cataleg: exemplar
deactivate Cataleg

Biblioteca->Exemplar: getEstat()
activate Exemplar
Biblioteca<--Exemplar: disponible
deactivate Exemplar

create Prestec
Biblioteca-->>Prestec: new Prestec(soci, exemplar)
activate Prestec

Prestec->Exemplar: canviaEstat(EstatExemplar.llogat)
activate Exemplar
Prestec<--Exemplar
deactivate Exemplar

Biblioteca<--Prestec : prestec
deactivate Prestec

[<--Biblioteca : prestec
deactivate Biblioteca

@enduml
